TC001
2017 2018
2
No,ID,Week1,Week2,Week3,Week4,Week5,Week6,Week7,Week8,Week9,Week10,Week11,Week12,
1,1751047,A,A,A,A,A,A,A,A,A,A,A,A,
2,1751048,
3,1751049,
4,1751050,
5,1751051,
6,1751052,
7,1751053,
8,1751054,
9,1751055,
10,1751125,
11,1751057,
12,1751058,
13,1751029,
14,1751059,
15,1751002,
16,1751001,
17,1751060,
18,1751061,
19,1751062,
20,1751063,
21,1751064,
22,1751065,
23,1751004,
24,1751045,
25,1751005,
26,1751066,
27,1751067,
28,1751068,
29,1751069,
30,1751070,
31,1751008,
32,1751030,
33,1751071,
34,1751072,
35,1751074,
36,1751076,
37,1751077,
38,1751124,
39,1751039,
40,1751031,
41,1751078,
42,1751080,
43,1751041,
44,1751011,
45,1751081,
46,1751082,
47,1751012,
48,1751043,
49,1751013,
50,1751083,
51,1751084,
52,1751085,
