Class,17APCS1
No,Student ID,Student name,Email,phone,Password,Type
1,1751047,Ha Binh An,hban@apcs.vn,123412345,1,0
2,1751048,Khuu Kien An,kkan@apcs.vn,123412345,1,0
3,1751049,Dang Le Tuan Anh,dltanh@apcs.vn,123412345,1,0
4,1751050,Dinh Ho Gia Bao,dhgbao@apcs.vn,123412345,1,0
5,1751051,Le Thanh Binh,ltbinh@apcs.vn,123412345,1,0
6,1751052,Nguyen Quoc Binh,nqbinh@apcs.vn,123412345,1,0
7,1751053,Nguyen Thanh Binh,ntbinh@apcs.vn,123412345,1,0
8,1751054,Long Vu Quynh Chau,lvqchau@apcs.vn,123412345,1,0
9,1751055,Le Anh Bach Chien,labchien@apcs.vn,123412345,1,0
10,1751125,Truong Cong Cuong,tccuong@apcs.vn,123412345,1,0
11,1751057,Huynh Tan Dat,htdat@apcs.vn,123412345,1,0
12,1751058,Le Hoang Dat,lhdat@apcs.vn,123412345,1,0
13,1751029,Trinh Huu Duc,thduc@apcs.vn,123412345,1,0
14,1751059,Tran Trung Duc,ttduc@apcs.vn,123412345,1,0
15,1751002,Le Doan Thai Duong,ldtduong@apcs.vn,123412345,1,0
16,1751001,Nguyen Hien Tuan Duy,nhtd@apcs.vn,123412345,1,0
17,1751060,Ho Cong Duy,hcduy@apcs.vn,123412345,1,0
18,1751061,Le Dinh Anh Duy,ldaduy@apcs.vn,123412345,1,0
19,1751062,Le Quoc Anh Duy,lqaduy@apcs.vn,123412345,1,0
20,1751063,Pham Bao Duy,pbduy@apcs.vn,123412345,1,0
21,1751064,Nguyen Hoang Gia,hhgia@apcs.vn,123412345,1,0
22,1751065,Nguyen Truong Giang,ntgiang@apcs.vn,123412345,1,0
23,1751004,Tran Nguyen Hien,tnhien@apcs.vn,123412345,1,0
24,1751045,Doan Thanh Hien,dthien@apcs.vn,123412345,1,0
25,1751005,Dao Hieu,dhieu@apcs.vn,123412345,1,0
26,1751066,Le Minh Hieu,lmhieu@apcs.vn,123412345,1,0
27,1751067,Nguyen Minh Hieu,nmhieu@apcs.vn,123412345,1,0
28,1751068,Pham Nguyen Huy Hoang,pnhhoang@apcs.vn,123412345,1,0
29,1751069,Nguyen Dinh Huan,ndhuan@apcs.vn,123412345,1,0
30,1751070,Tran Gia Huan,tghuan@apcs.vn,123412345,1,0
31,1751008,Do Nhat Huy,dnhuy@apcs.vn,123412345,1,0
32,1751030,Nguyen Ngoc Minh Huy,nnmhuy@apcs.vn,123412345,1,0
33,1751071,Doan Nhat Huy,dnhuy2@apcs.vn,123412345,1,0
34,1751072,Le Quoc Huy,lqhuy@apcs.vn,123412345,1,0
35,1751074,Nguyen Phuc Khang,npkhang@apcs.vn,123412345,1,0
36,1751076,Doan Ngoc Anh Khoa,dnakhoa@apcs.vn,123412345,1,0
37,1751077,Nguyen Dang Khoa,ndkhoa@apcs.vn,123412345,1,0
38,1751124,Phan Dang Khoa,pdkhoa@apcs.vn,123412345,1,0
39,1751039,Vo Kien,vkien@apcs.vn,123412345,1,0
40,1751031,Dinh Nguyen Hoang Kim,dnhkim@apcs.vn,123412345,1,0
41,1751078,Nguyen Vo Duc Loc,nvdloc@apcs.vn,123412345,1,0
42,1751080,Truong Tuc Luan,ttluan@apcs.vn,123412345,1,0
43,1751041,Tran Huu Thien Luong,thtluong@apcs.vn,123412345,1,0
44,1751011,Nguyen Hoang Minh,nhminh@apcs.vn,972345432,1,0
45,1751081,Nguyen Phuc mInh,npminh@apcs.vn,9846638484,1,0
46,1751082,Vu Hoang Minh,vhminh@apcs.vn,123456787,1,0
47,1751012,Nguyen Chan Nam,ncnam@apcs.vn,123234567,1,0
48,1751043,Vo Hoang Ngan,vhngan@apcs.vn,986468443,1,0
49,1751013,Nguyen Ho Huu Nghia,nhhnghia@apcs.vn,986674443,1,0
50,1751083,Huynh Hieu Nghia,hhnghia@apcs.vn,124843833,1,0
51,1751084,Vu Dang Nghia,vdnghia@apcs.vn,12336634733,1,0
52,1751085,Nguyen Mac Bao Ngoc,nmbngoc@apcs.vn,12356672363,1,0